<?xml version="1.0" encoding="UTF-8" standalone="no"?>
<!-- Created with Inkscape (http://www.inkscape.org/) -->

<svg
   width="332.84225mm"
   height="205.7265mm"
   viewBox="0 0 332.84225 205.7265"
   version="1.1"
   id="svg51590"
   sodipodi:docname="hidden_blank.svg"
   inkscape:version="1.1 (c68e22c387, 2021-05-23)"
   xmlns:inkscape="http://www.inkscape.org/namespaces/inkscape"
   xmlns:sodipodi="http://sodipodi.sourceforge.net/DTD/sodipodi-0.dtd"
   xmlns="http://www.w3.org/2000/svg"
   xmlns:svg="http://www.w3.org/2000/svg">
  <sodipodi:namedview
     id="namedview51592"
     pagecolor="#505050"
     bordercolor="#eeeeee"
     borderopacity="1"
     inkscape:pageshadow="0"
     inkscape:pageopacity="0"
     inkscape:pagecheckerboard="0"
     inkscape:document-units="mm"
     showgrid="false"
     inkscape:object-paths="true"
     inkscape:snap-midpoints="true"
     fit-margin-top="0"
     fit-margin-left="0"
     fit-margin-right="0"
     fit-margin-bottom="0"
     inkscape:zoom="0.37059484"
     inkscape:cx="600.38613"
     inkscape:cy="716.41581"
     inkscape:window-width="1920"
     inkscape:window-height="1017"
     inkscape:window-x="-8"
     inkscape:window-y="-8"
     inkscape:window-maximized="1"
     inkscape:current-layer="layer1"
     inkscape:snap-bbox="true"
     inkscape:snap-bbox-midpoints="true"
     showguides="true"
     inkscape:guide-bbox="true">
    <sodipodi:guide
       position="-250.59375,135.04621"
       orientation="1,0"
       id="guide55470" />
  </sodipodi:namedview>
  <defs
     id="defs51587" />
  <g
     inkscape:label="Layer 1"
     inkscape:groupmode="layer"
     id="layer1"
     transform="translate(79.866961,-14.528186)">
    <rect
       style="fill:#ffffff;stroke:#000000;stroke-width:5.54916;stroke-linecap:round;stroke-linejoin:bevel;stroke-miterlimit:4;stroke-dasharray:none"
       id="rect53646"
       width="327.29309"
       height="405.64459"
       x="-77.092384"
       y="17.302765"
       ry="12.786767"
       inkscape:export-filename="G:\mega\storage-g\programming\intellij_idea_projects\card_game\src\images\hidden_green.png"
       inkscape:export-xdpi="11.141615"
       inkscape:export-ydpi="11.141615" />
  </g>
</svg>
